{
  "devToolsPort": 19002,
  "expoServerPort": 19000,
  "packagerPort": 19001,
  "packagerPid": 55036,
  "expoServerNgrokUrl": "https://u9-suf.anonymous.myjournal.exp.direct",
  "packagerNgrokUrl": "https://packager.u9-suf.anonymous.myjournal.exp.direct",
  "ngrokPid": 55045
}